<?xml version="1.0" encoding="UTF-8" standalone="no"?>
<!-- Created with Inkscape (http://www.inkscape.org/) -->

<svg
   xmlns:dc="http://purl.org/dc/elements/1.1/"
   xmlns:cc="http://creativecommons.org/ns#"
   xmlns:rdf="http://www.w3.org/1999/02/22-rdf-syntax-ns#"
   xmlns:svg="http://www.w3.org/2000/svg"
   xmlns="http://www.w3.org/2000/svg"
   xmlns:xlink="http://www.w3.org/1999/xlink"
   xmlns:sodipodi="http://sodipodi.sourceforge.net/DTD/sodipodi-0.dtd"
   xmlns:inkscape="http://www.inkscape.org/namespaces/inkscape"
   width="210mm"
   height="297mm"
   viewBox="0 0 210 297"
   version="1.1"
   id="svg8"
   inkscape:version="0.92.3 (2405546, 2018-03-11)"
   sodipodi:docname="marker-alpro.svg"
   inkscape:export-filename="C:\Users\muhaimin.azhim\Documents\src\tomman\public\img\mcore\alpro.png"
   inkscape:export-xdpi="19.540001"
   inkscape:export-ydpi="19.540001">
  <defs
     id="defs2">
    <linearGradient
       inkscape:collect="always"
       id="linearGradient924">
      <stop
         style="stop-color:#cccccc;stop-opacity:1"
         offset="0"
         id="stop920" />
      <stop
         style="stop-color:#cccccc;stop-opacity:0"
         offset="1"
         id="stop922" />
    </linearGradient>
    <radialGradient
       inkscape:collect="always"
       xlink:href="#linearGradient924"
       id="radialGradient926"
       cx="-41.426773"
       cy="78.6408"
       fx="-41.426773"
       fy="78.6408"
       r="5.8799295"
       gradientTransform="matrix(1.8035304,0,0,0.47337333,99.837783,53.976014)"
       gradientUnits="userSpaceOnUse" />
  </defs>
  <sodipodi:namedview
     id="base"
     pagecolor="#ffffff"
     bordercolor="#666666"
     borderopacity="1.0"
     inkscape:pageopacity="0.0"
     inkscape:pageshadow="2"
     inkscape:zoom="1.4"
     inkscape:cx="-121.3302"
     inkscape:cy="798.54187"
     inkscape:document-units="mm"
     inkscape:current-layer="layer1"
     showgrid="false"
     showguides="true"
     inkscape:guide-bbox="true"
     inkscape:object-paths="true"
     inkscape:snap-intersection-paths="true"
     inkscape:window-width="1920"
     inkscape:window-height="1125"
     inkscape:window-x="1911"
     inkscape:window-y="-9"
     inkscape:window-maximized="1"
     inkscape:snap-global="false">
    <sodipodi:guide
       position="22.300594,278.94644"
       orientation="0,1"
       id="guide819"
       inkscape:locked="false" />
  </sodipodi:namedview>
  <metadata
     id="metadata5">
    <rdf:RDF>
      <cc:Work
         rdf:about="">
        <dc:format>image/svg+xml</dc:format>
        <dc:type
           rdf:resource="http://purl.org/dc/dcmitype/StillImage" />
        <dc:title></dc:title>
      </cc:Work>
    </rdf:RDF>
  </metadata>
  <g
     inkscape:label="Layer 1"
     inkscape:groupmode="layer"
     id="layer1">
    <ellipse
       style="fill:url(#radialGradient926);fill-opacity:1;stroke:none;stroke-width:2;stroke-miterlimit:4;stroke-dasharray:6.00000014, 2.00000004;stroke-dashoffset:0"
       id="path918"
       cx="25.123339"
       cy="91.202477"
       rx="10.604631"
       ry="2.783402" />
    <rect
       style="fill:#ff2a2a;fill-opacity:0.97000002;stroke:none;stroke-width:2;stroke-miterlimit:4;stroke-dasharray:6.0000001, 2.00000003;stroke-dashoffset:0"
       id="rect815"
       width="5.1026788"
       height="72.804916"
       x="22.571999"
       y="18.053572"
       ry="1.4672776"
       inkscape:export-filename="C:\Users\muhaimin.azhim\Documents\src\tomman\public\img\mcore\alpro.png"
       inkscape:export-xdpi="19.540001"
       inkscape:export-ydpi="19.540001" />
    <path
       style="fill:#ff2929;fill-opacity:0.97254902;stroke:none;stroke-width:1.99999988;stroke-miterlimit:4;stroke-dasharray:5.99999993, 1.99999997;stroke-dashoffset:0"
       d="m 29.818392,18.053561 21.511961,2e-6 -21.511641,31.667732 z"
       id="rect860"
       inkscape:connector-curvature="0"
       inkscape:export-filename="C:\Users\muhaimin.azhim\Documents\src\tomman\public\img\mcore\alpro.png"
       inkscape:export-xdpi="19.540001"
       inkscape:export-ydpi="19.540001" />
  </g>
</svg>
